{"pageProps":{"initialApolloState":{"Product:6754dc29783e613c5e03734f":{"id":"6754dc29783e613c5e03734f","type":{"type":"id","generated":false,"id":"ProductType:62b3e30e2669e09fc58ec6c2","typename":"ProductType"},"categories":[{"type":"id","generated":false,"id":"ProductCategory:6328efabcc33d353511f3c6e","typename":"ProductCategory"},{"type":"id","generated":false,"id":"ProductCategory:6759d3e13ae248a83a69c436","typename":"ProductCategory"},{"type":"id","generated":false,"id":"ProductCategory:6759d2c33ae248a83a69c433","typename":"ProductCategory"}],"name":"REPOLLO MORADO X KG","slug":"REPOLLO-MORADO","description":null,"packagePrice":0,"images":{"type":"json","json":["images/emuq9R2Lb-REPOLLO MORADO DITTO.webp"]},"unit":null,"price":2000,"sale_price":null,"discount_in_percent":null,"product_quantity":999,"is_featured":true,"is_online":true,"meta_title":null,"meta_keyword":null,"meta_description":null,"__typename":"Product"},"ProductType:62b3e30e2669e09fc58ec6c2":{"id":"62b3e30e2669e09fc58ec6c2","slug":null,"__typename":"ProductType"},"ProductCategory:6328efabcc33d353511f3c6e":{"id":"6328efabcc33d353511f3c6e","slug":"todos-los-productos","__typename":"ProductCategory"},"ProductCategory:6759d3e13ae248a83a69c436":{"id":"6759d3e13ae248a83a69c436","slug":"hortalizas-de-fruto-tallo-y-raiz","__typename":"ProductCategory"},"ProductCategory:6759d2c33ae248a83a69c433":{"id":"6759d2c33ae248a83a69c433","slug":"verduras-frescas","__typename":"ProductCategory"},"Product:6352c67b3e63a95696fd53b4":{"id":"6352c67b3e63a95696fd53b4","type":{"type":"id","generated":false,"id":"ProductType:62b3e30e2669e09fc58ec6c2","typename":"ProductType"},"categories":[{"type":"id","generated":false,"id":"ProductCategory:6328efabcc33d353511f3c6e","typename":"ProductCategory"},{"type":"id","generated":false,"id":"ProductCategory:6759d3873ae248a83a69c435","typename":"ProductCategory"},{"type":"id","generated":false,"id":"ProductCategory:6759d2c33ae248a83a69c433","typename":"ProductCategory"}],"name":"ACHICORIA X MAZO","slug":"achicoria","description":"","packagePrice":0,"images":{"type":"json","json":["images/WJce2oOc1-ACHICORIA DITTO.webp"]},"unit":null,"price":750,"sale_price":null,"discount_in_percent":null,"product_quantity":17,"is_featured":true,"is_online":true,"meta_title":null,"meta_keyword":null,"meta_description":null,"__typename":"Product"},"ProductCategory:6759d3873ae248a83a69c435":{"id":"6759d3873ae248a83a69c435","slug":"hortalizas-de-hoja","__typename":"ProductCategory"},"Product:635fd920ef76dd092d256151":{"id":"635fd920ef76dd092d256151","type":{"type":"id","generated":false,"id":"ProductType:62b3e30e2669e09fc58ec6c2","typename":"ProductType"},"categories":[{"type":"id","generated":false,"id":"ProductCategory:6328efabcc33d353511f3c6e","typename":"ProductCategory"},{"type":"id","generated":false,"id":"ProductCategory:6759d2c33ae248a83a69c433","typename":"ProductCategory"},{"type":"id","generated":false,"id":"ProductCategory:6759d3e13ae248a83a69c436","typename":"ProductCategory"}],"name":"MORRON VERDE X 1/2KG","slug":"MORRON-VERDE","description":"","packagePrice":0,"images":{"type":"json","json":["images/dUv3c188l-morron verde convertido.webp"]},"unit":null,"price":1000,"sale_price":null,"discount_in_percent":null,"product_quantity":998,"is_featured":true,"is_online":true,"meta_title":null,"meta_keyword":null,"meta_description":null,"__typename":"Product"},"Product:6384a1df1598e21353891741":{"id":"6384a1df1598e21353891741","type":{"type":"id","generated":false,"id":"ProductType:62b3e30e2669e09fc58ec6c2","typename":"ProductType"},"categories":[{"type":"id","generated":false,"id":"ProductCategory:6328efabcc33d353511f3c6e","typename":"ProductCategory"},{"type":"id","generated":false,"id":"ProductCategory:6759d2c33ae248a83a69c433","typename":"ProductCategory"},{"type":"id","generated":false,"id":"ProductCategory:6759d3e13ae248a83a69c436","typename":"ProductCategory"}],"name":"BERENJENA RAYADA X 1/2KG","slug":"BERENJEN","description":"","packagePrice":0,"images":{"type":"json","json":["images/o6pl4EsxH-BERENJENA RAYADA DITTO.webp"]},"unit":null,"price":1500,"sale_price":null,"discount_in_percent":null,"product_quantity":998,"is_featured":true,"is_online":true,"meta_title":null,"meta_keyword":null,"meta_description":null,"__typename":"Product"},"Product:638637c16873c017d1eaa2b5":{"id":"638637c16873c017d1eaa2b5","type":{"type":"id","generated":false,"id":"ProductType:62b3e30e2669e09fc58ec6c2","typename":"ProductType"},"categories":[{"type":"id","generated":false,"id":"ProductCategory:6328efabcc33d353511f3c6e","typename":"ProductCategory"},{"type":"id","generated":false,"id":"ProductCategory:6759d2c33ae248a83a69c433","typename":"ProductCategory"},{"type":"id","generated":false,"id":"ProductCategory:6759d36b3ae248a83a69c434","typename":"ProductCategory"}],"name":"30 HUEVOS BLANCOS MEDIANOS DOBLE A","slug":"maple-30-huevos","description":"","packagePrice":0,"images":{"type":"json","json":["images/l66HBZG49-MAPLE-HUEVO-DOBLE-A.webp"]},"unit":null,"price":900,"sale_price":null,"discount_in_percent":null,"product_quantity":999,"is_featured":true,"is_online":true,"meta_title":null,"meta_keyword":null,"meta_description":null,"__typename":"Product"},"ProductCategory:6759d36b3ae248a83a69c434":{"id":"6759d36b3ae248a83a69c434","slug":"huevos-y-lacteos","__typename":"ProductCategory"},"Product:6390a400b5327f3953551c8f":{"id":"6390a400b5327f3953551c8f","type":{"type":"id","generated":false,"id":"ProductType:62b3e30e2669e09fc58ec6c2","typename":"ProductType"},"categories":[{"type":"id","generated":false,"id":"ProductCategory:6328efabcc33d353511f3c6e","typename":"ProductCategory"},{"type":"id","generated":false,"id":"ProductCategory:6759d2c33ae248a83a69c433","typename":"ProductCategory"},{"type":"id","generated":false,"id":"ProductCategory:6759d3e13ae248a83a69c436","typename":"ProductCategory"}],"name":"BROCOLI X UNIDAD","slug":"brocoli","description":"","packagePrice":0,"images":{"type":"json","json":["images/rwJCTYgQh-coliflor.webp"]},"unit":null,"price":2500,"sale_price":null,"discount_in_percent":null,"product_quantity":998,"is_featured":true,"is_online":true,"meta_title":null,"meta_keyword":null,"meta_description":null,"__typename":"Product"},"Product:6390a480188b7a537875e5b3":{"id":"6390a480188b7a537875e5b3","type":{"type":"id","generated":false,"id":"ProductType:62b3e30e2669e09fc58ec6c2","typename":"ProductType"},"categories":[{"type":"id","generated":false,"id":"ProductCategory:6328efabcc33d353511f3c6e","typename":"ProductCategory"},{"type":"id","generated":false,"id":"ProductCategory:6759d3e13ae248a83a69c436","typename":"ProductCategory"},{"type":"id","generated":false,"id":"ProductCategory:6759d2c33ae248a83a69c433","typename":"ProductCategory"}],"name":"MORRON ROJO X 1/2KG","slug":"MORRON ROJO","description":"","packagePrice":0,"images":{"type":"json","json":["images/NcMcsOISz-ybjs5jyWx-red-pepper.webp"]},"unit":null,"price":1500,"sale_price":null,"discount_in_percent":null,"product_quantity":1000,"is_featured":true,"is_online":true,"meta_title":null,"meta_keyword":null,"meta_description":null,"__typename":"Product"},"Product:66d34b254d28197826f057f1":{"id":"66d34b254d28197826f057f1","type":{"type":"id","generated":false,"id":"ProductType:62b3e30e2669e09fc58ec6c2","typename":"ProductType"},"categories":[{"type":"id","generated":false,"id":"ProductCategory:6328efabcc33d353511f3c6e","typename":"ProductCategory"},{"type":"id","generated":false,"id":"ProductCategory:6759d3e13ae248a83a69c436","typename":"ProductCategory"},{"type":"id","generated":false,"id":"ProductCategory:6759d2c33ae248a83a69c433","typename":"ProductCategory"}],"name":"APIO X MASO","slug":"APIO","description":null,"packagePrice":0,"images":{"type":"json","json":["images/iKpjNKqxj-APPIO DITTO.webp"]},"unit":null,"price":3500,"sale_price":null,"discount_in_percent":null,"product_quantity":1000,"is_featured":true,"is_online":true,"meta_title":null,"meta_keyword":null,"meta_description":null,"__typename":"Product"},"Product:6754d75f783e613c5e03734b":{"id":"6754d75f783e613c5e03734b","type":{"type":"id","generated":false,"id":"ProductType:62b3e30e2669e09fc58ec6c2","typename":"ProductType"},"categories":[{"type":"id","generated":false,"id":"ProductCategory:6328efabcc33d353511f3c6e","typename":"ProductCategory"},{"type":"id","generated":false,"id":"ProductCategory:6759d2c33ae248a83a69c433","typename":"ProductCategory"},{"type":"id","generated":false,"id":"ProductCategory:6759d3e13ae248a83a69c436","typename":"ProductCategory"}],"name":"REMOLACHA X 500GR","slug":"REMOLACHA","description":null,"packagePrice":0,"images":{"type":"json","json":["images/m1oH$zdqY-REMOLACHA DITTO.webp"]},"unit":null,"price":1000,"sale_price":null,"discount_in_percent":null,"product_quantity":998,"is_featured":true,"is_online":true,"meta_title":null,"meta_keyword":null,"meta_description":null,"__typename":"Product"},"Product:6754d8a3783e613c5e03734c":{"id":"6754d8a3783e613c5e03734c","type":{"type":"id","generated":false,"id":"ProductType:62b3e30e2669e09fc58ec6c2","typename":"ProductType"},"categories":[{"type":"id","generated":false,"id":"ProductCategory:6328efabcc33d353511f3c6e","typename":"ProductCategory"},{"type":"id","generated":false,"id":"ProductCategory:6759d3e13ae248a83a69c436","typename":"ProductCategory"},{"type":"id","generated":false,"id":"ProductCategory:6759d2c33ae248a83a69c433","typename":"ProductCategory"}],"name":"PUERRO X MASO","slug":"PUERRO","description":null,"packagePrice":0,"images":{"type":"json","json":["images/yIrPNQ9QZ-PUERRO DITTO.webp"]},"unit":null,"price":1300,"sale_price":null,"discount_in_percent":null,"product_quantity":996,"is_featured":true,"is_online":true,"meta_title":null,"meta_keyword":null,"meta_description":null,"__typename":"Product"},"Product:6754da13783e613c5e03734d":{"id":"6754da13783e613c5e03734d","type":{"type":"id","generated":false,"id":"ProductType:62b3e30e2669e09fc58ec6c2","typename":"ProductType"},"categories":[{"type":"id","generated":false,"id":"ProductCategory:6328efabcc33d353511f3c6e","typename":"ProductCategory"},{"type":"id","generated":false,"id":"ProductCategory:6759d3e13ae248a83a69c436","typename":"ProductCategory"},{"type":"id","generated":false,"id":"ProductCategory:6759d2c33ae248a83a69c433","typename":"ProductCategory"}],"name":"RABANITO X 500GR","slug":"RABANITO","description":null,"packagePrice":0,"images":{"type":"json","json":["images/mGY5vQIXJ-RABANITO DITTO FARM.webp"]},"unit":null,"price":750,"sale_price":null,"discount_in_percent":null,"product_quantity":1000,"is_featured":true,"is_online":true,"meta_title":null,"meta_keyword":null,"meta_description":null,"__typename":"Product"},"Product:6754db14783e613c5e03734e":{"id":"6754db14783e613c5e03734e","type":{"type":"id","generated":false,"id":"ProductType:62b3e30e2669e09fc58ec6c2","typename":"ProductType"},"categories":[{"type":"id","generated":false,"id":"ProductCategory:6328efabcc33d353511f3c6e","typename":"ProductCategory"},{"type":"id","generated":false,"id":"ProductCategory:6759d2c33ae248a83a69c433","typename":"ProductCategory"},{"type":"id","generated":false,"id":"ProductCategory:6759d3e13ae248a83a69c436","typename":"ProductCategory"}],"name":"REPOLLO BLANCO X KG","slug":"REPOLLO BLANCO","description":null,"packagePrice":0,"images":{"type":"json","json":["images/LAunOySty-REPOLLO DITTO.webp"]},"unit":null,"price":1500,"sale_price":null,"discount_in_percent":null,"product_quantity":998,"is_featured":true,"is_online":true,"meta_title":null,"meta_keyword":null,"meta_description":null,"__typename":"Product"},"Product:6329b8cfcc33d353511f3c72":{"id":"6329b8cfcc33d353511f3c72","type":{"type":"id","generated":false,"id":"ProductType:62b3e30e2669e09fc58ec6c2","typename":"ProductType"},"categories":[{"type":"id","generated":false,"id":"ProductCategory:6328efabcc33d353511f3c6e","typename":"ProductCategory"},{"type":"id","generated":false,"id":"ProductCategory:62b4a0cc5821c3a05b6749b4","typename":"ProductCategory"}],"name":"6 HUEVOS BLANCOS MEDIANOS DOBLE A","slug":"6-huevos","description":"","packagePrice":0,"images":{"type":"json","json":["images/gqhspER1I-6-huevos.webp"]},"unit":"","price":220,"sale_price":0,"discount_in_percent":0,"product_quantity":8,"is_featured":true,"is_online":true,"meta_title":null,"meta_keyword":null,"meta_description":null,"__typename":"Product"},"ProductCategory:62b4a0cc5821c3a05b6749b4":{"id":"62b4a0cc5821c3a05b6749b4","slug":"verduleria","__typename":"ProductCategory"},"Product:67561f11783e613c5e037350":{"id":"67561f11783e613c5e037350","type":{"type":"id","generated":false,"id":"ProductType:62b3e30e2669e09fc58ec6c2","typename":"ProductType"},"categories":[{"type":"id","generated":false,"id":"ProductCategory:6328efabcc33d353511f3c6e","typename":"ProductCategory"},{"type":"id","generated":false,"id":"ProductCategory:6759d3e13ae248a83a69c436","typename":"ProductCategory"},{"type":"id","generated":false,"id":"ProductCategory:6759d2c33ae248a83a69c433","typename":"ProductCategory"}],"name":"COLIFLOR X UNIDAD","slug":"COLIFLOR","description":null,"packagePrice":0,"images":{"type":"json","json":["images/TSNePkdzt-COLIFLOR DITTO.webp"]},"unit":null,"price":2000,"sale_price":null,"discount_in_percent":null,"product_quantity":1000,"is_featured":true,"is_online":true,"meta_title":null,"meta_keyword":null,"meta_description":null,"__typename":"Product"},"Product:67562121783e613c5e037351":{"id":"67562121783e613c5e037351","type":{"type":"id","generated":false,"id":"ProductType:62b3e30e2669e09fc58ec6c2","typename":"ProductType"},"categories":[{"type":"id","generated":false,"id":"ProductCategory:6328efabcc33d353511f3c6e","typename":"ProductCategory"},{"type":"id","generated":false,"id":"ProductCategory:6759d3e13ae248a83a69c436","typename":"ProductCategory"},{"type":"id","generated":false,"id":"ProductCategory:6759d2c33ae248a83a69c433","typename":"ProductCategory"}],"name":"COLIFLOR MORADO X UNIDAD","slug":"COLIFLOR MORADO","description":null,"packagePrice":0,"images":{"type":"json","json":["images/iEy9BWxI0-COLIFLOR MORADO DITTO.webp"]},"unit":null,"price":1000,"sale_price":null,"discount_in_percent":null,"product_quantity":1000,"is_featured":true,"is_online":true,"meta_title":null,"meta_keyword":null,"meta_description":null,"__typename":"Product"},"Product:67562298783e613c5e037352":{"id":"67562298783e613c5e037352","type":{"type":"id","generated":false,"id":"ProductType:62b3e30e2669e09fc58ec6c2","typename":"ProductType"},"categories":[{"type":"id","generated":false,"id":"ProductCategory:6328efabcc33d353511f3c6e","typename":"ProductCategory"},{"type":"id","generated":false,"id":"ProductCategory:6759d3e13ae248a83a69c436","typename":"ProductCategory"},{"type":"id","generated":false,"id":"ProductCategory:6759d2c33ae248a83a69c433","typename":"ProductCategory"}],"name":"CHAUCHA ANCHA X 1/4KG","slug":"CHAUCHA-ANCHA","description":null,"packagePrice":0,"images":{"type":"json","json":["images/y7XySLnKB-CHAUCHA ANCHA DITTO.webp"]},"unit":null,"price":1125,"sale_price":null,"discount_in_percent":null,"product_quantity":1000,"is_featured":true,"is_online":true,"meta_title":null,"meta_keyword":null,"meta_description":null,"__typename":"Product"},"Product:6756248c783e613c5e037353":{"id":"6756248c783e613c5e037353","type":{"type":"id","generated":false,"id":"ProductType:62b3e30e2669e09fc58ec6c2","typename":"ProductType"},"categories":[{"type":"id","generated":false,"id":"ProductCategory:62b4a0cc5821c3a05b6749b4","typename":"ProductCategory"},{"type":"id","generated":false,"id":"ProductCategory:6328efabcc33d353511f3c6e","typename":"ProductCategory"}],"name":"CHAUCHA FINA X 1/4KG","slug":"CHAUCHA FINA","description":null,"packagePrice":null,"images":{"type":"json","json":["images/dGQjklLBf-CHAUCHA FINA DITTO.webp"]},"unit":"","price":1250,"sale_price":0,"discount_in_percent":0,"product_quantity":1000,"is_featured":true,"is_online":true,"meta_title":null,"meta_keyword":null,"meta_description":null,"__typename":"Product"},"Product:67567000783e613c5e037354":{"id":"67567000783e613c5e037354","type":{"type":"id","generated":false,"id":"ProductType:62b3e30e2669e09fc58ec6c2","typename":"ProductType"},"categories":[{"type":"id","generated":false,"id":"ProductCategory:6328efabcc33d353511f3c6e","typename":"ProductCategory"},{"type":"id","generated":false,"id":"ProductCategory:6759d2c33ae248a83a69c433","typename":"ProductCategory"},{"type":"id","generated":false,"id":"ProductCategory:6759d3e13ae248a83a69c436","typename":"ProductCategory"}],"name":"ZAPALLITO TRONCO X 1/2KG","slug":"ZAPALLITO-TRONCO","description":null,"packagePrice":0,"images":{"type":"json","json":["images/bPX2GKXVQ-ZAPALLITO TRONCO DITTO.webp"]},"unit":null,"price":400,"sale_price":null,"discount_in_percent":null,"product_quantity":1000,"is_featured":true,"is_online":true,"meta_title":null,"meta_keyword":null,"meta_description":null,"__typename":"Product"},"Product:67575e0e783e613c5e037355":{"id":"67575e0e783e613c5e037355","type":{"type":"id","generated":false,"id":"ProductType:62b3e30e2669e09fc58ec6c2","typename":"ProductType"},"categories":[{"type":"id","generated":false,"id":"ProductCategory:6328efabcc33d353511f3c6e","typename":"ProductCategory"},{"type":"id","generated":false,"id":"ProductCategory:6759d3873ae248a83a69c435","typename":"ProductCategory"},{"type":"id","generated":false,"id":"ProductCategory:6759d2c33ae248a83a69c433","typename":"ProductCategory"}],"name":"LECHUGA REPOLLADA X UNIDAD","slug":"LECHUGA-REPOLLADA","description":null,"packagePrice":0,"images":{"type":"json","json":["images/$b2wF2AKv-LECHUGA REPOLLADA DITTO.webp"]},"unit":null,"price":2000,"sale_price":null,"discount_in_percent":null,"product_quantity":1000,"is_featured":true,"is_online":true,"meta_title":null,"meta_keyword":null,"meta_description":null,"__typename":"Product"},"Product:67575ea9783e613c5e037356":{"id":"67575ea9783e613c5e037356","type":{"type":"id","generated":false,"id":"ProductType:62b3e30e2669e09fc58ec6c2","typename":"ProductType"},"categories":[{"type":"id","generated":false,"id":"ProductCategory:6328efabcc33d353511f3c6e","typename":"ProductCategory"},{"type":"id","generated":false,"id":"ProductCategory:6759d3873ae248a83a69c435","typename":"ProductCategory"},{"type":"id","generated":false,"id":"ProductCategory:6759d2c33ae248a83a69c433","typename":"ProductCategory"}],"name":"LECHUGA MANTECOSA X UNIDAD","slug":"LECHUGA-MANTECOSA","description":null,"packagePrice":0,"images":{"type":"json","json":["images/pqhXluT5j-LECHUGA MANTECOSA DITTO.webp"]},"unit":null,"price":2500,"sale_price":null,"discount_in_percent":null,"product_quantity":1000,"is_featured":true,"is_online":true,"meta_title":null,"meta_keyword":null,"meta_description":null,"__typename":"Product"},"$ROOT_QUERY.products({\"limit\":20,\"offset\":0,\"type\":\"home\"})":{"items":[{"type":"id","generated":false,"id":"Product:6754dc29783e613c5e03734f","typename":"Product"},{"type":"id","generated":false,"id":"Product:6352c67b3e63a95696fd53b4","typename":"Product"},{"type":"id","generated":false,"id":"Product:635fd920ef76dd092d256151","typename":"Product"},{"type":"id","generated":false,"id":"Product:6384a1df1598e21353891741","typename":"Product"},{"type":"id","generated":false,"id":"Product:638637c16873c017d1eaa2b5","typename":"Product"},{"type":"id","generated":false,"id":"Product:6390a400b5327f3953551c8f","typename":"Product"},{"type":"id","generated":false,"id":"Product:6390a480188b7a537875e5b3","typename":"Product"},{"type":"id","generated":false,"id":"Product:66d34b254d28197826f057f1","typename":"Product"},{"type":"id","generated":false,"id":"Product:6754d75f783e613c5e03734b","typename":"Product"},{"type":"id","generated":false,"id":"Product:6754d8a3783e613c5e03734c","typename":"Product"},{"type":"id","generated":false,"id":"Product:6754da13783e613c5e03734d","typename":"Product"},{"type":"id","generated":false,"id":"Product:6754db14783e613c5e03734e","typename":"Product"},{"type":"id","generated":false,"id":"Product:6329b8cfcc33d353511f3c72","typename":"Product"},{"type":"id","generated":false,"id":"Product:67561f11783e613c5e037350","typename":"Product"},{"type":"id","generated":false,"id":"Product:67562121783e613c5e037351","typename":"Product"},{"type":"id","generated":false,"id":"Product:67562298783e613c5e037352","typename":"Product"},{"type":"id","generated":false,"id":"Product:6756248c783e613c5e037353","typename":"Product"},{"type":"id","generated":false,"id":"Product:67567000783e613c5e037354","typename":"Product"},{"type":"id","generated":false,"id":"Product:67575e0e783e613c5e037355","typename":"Product"},{"type":"id","generated":false,"id":"Product:67575ea9783e613c5e037356","typename":"Product"}],"totalCount":117,"hasMore":true,"__typename":"ProductPaginationType"},"ROOT_QUERY":{"products({\"limit\":20,\"offset\":0,\"type\":\"home\"})":{"type":"id","generated":true,"id":"$ROOT_QUERY.products({\"limit\":20,\"offset\":0,\"type\":\"home\"})","typename":"ProductPaginationType"},"categories({\"limit\":0})":{"type":"id","generated":true,"id":"$ROOT_QUERY.categories({\"limit\":0})","typename":"CatetgoryPaginationType"}},"Category:6759d3e13ae248a83a69c436":{"id":"6759d3e13ae248a83a69c436","parent_id":"6759d2c33ae248a83a69c433","name":"Hortalizas de fruto, tallo y raiz","slug":"hortalizas-de-fruto-tallo-y-raiz","banner":"images/grocery-default-image.png","icon":"ArrowNext","children":[],"__typename":"Category"},"Category:6759d3873ae248a83a69c435":{"id":"6759d3873ae248a83a69c435","parent_id":"6759d2c33ae248a83a69c433","name":"Hortalizas de hoja","slug":"hortalizas-de-hoja","banner":"images/grocery-default-image.png","icon":"ArrowNext","children":[],"__typename":"Category"},"Category:6759d2c33ae248a83a69c433":{"id":"6759d2c33ae248a83a69c433","parent_id":null,"name":"Verduras frescas","slug":"verduras-frescas","banner":"images/grocery-default-image.png","icon":"GroceryIcon","children":[{"type":"id","generated":false,"id":"CategoryChildren:6759d3e13ae248a83a69c436","typename":"CategoryChildren"},{"type":"id","generated":false,"id":"CategoryChildren:6759d3873ae248a83a69c435","typename":"CategoryChildren"}],"__typename":"Category"},"CategoryChildren:6759d3e13ae248a83a69c436":{"id":"6759d3e13ae248a83a69c436","name":"Hortalizas de fruto, tallo y raiz","slug":"hortalizas-de-fruto-tallo-y-raiz","banner":"images/grocery-default-image.png","icon":"ArrowNext","__typename":"CategoryChildren"},"CategoryChildren:6759d3873ae248a83a69c435":{"id":"6759d3873ae248a83a69c435","name":"Hortalizas de hoja","slug":"hortalizas-de-hoja","banner":"images/grocery-default-image.png","icon":"ArrowNext","__typename":"CategoryChildren"},"Category:6759cdbb3ae248a83a69c42f":{"id":"6759cdbb3ae248a83a69c42f","parent_id":"6748f340783e613c5e03733d","name":"Alimento para gatos","slug":"alimento-para-gatos","banner":"images/grocery-default-image.png","icon":"ArrowNext","children":[],"__typename":"Category"},"Category:6759cda93ae248a83a69c42e":{"id":"6759cda93ae248a83a69c42e","parent_id":"6748f340783e613c5e03733d","name":"Alimento para perros","slug":"alimento-para-perros","banner":"images/grocery-default-image.png","icon":"ArrowNext","children":[],"__typename":"Category"},"$ROOT_QUERY.categories({\"limit\":0})":{"items":[{"type":"id","generated":false,"id":"Category:6759d3e13ae248a83a69c436","typename":"Category"},{"type":"id","generated":false,"id":"Category:6759d3873ae248a83a69c435","typename":"Category"},{"type":"id","generated":false,"id":"Category:6759d2c33ae248a83a69c433","typename":"Category"},{"type":"id","generated":false,"id":"Category:6759cdbb3ae248a83a69c42f","typename":"Category"},{"type":"id","generated":false,"id":"Category:6759cda93ae248a83a69c42e","typename":"Category"}],"totalCount":5,"hasMore":true,"__typename":"CatetgoryPaginationType"}}},"__N_SSG":true}