{"pageProps":{"initialApolloState":{"Product:630fde44424018a191b5d0cf":{"id":"630fde44424018a191b5d0cf","type":{"type":"id","generated":false,"id":"ProductType:62b3e30e2669e09fc58ec6c2","typename":"ProductType"},"categories":[{"type":"id","generated":false,"id":"ProductCategory:6328efabcc33d353511f3c6e","typename":"ProductCategory"},{"type":"id","generated":false,"id":"ProductCategory:62b4a0cc5821c3a05b6749b4","typename":"ProductCategory"}],"name":"Merm. de frutilla orgánica 1/4kg","slug":"lala","description":" 500gr de mermelada casera de frutilla orgánica hecha con azúcar de mascabo.","packagePrice":20,"images":{"type":"json","json":["images/cs5Jh1XyR-IMG_3F23C98E58D6-1.jpeg"]},"unit":"5123123","price":500,"sale_price":400,"discount_in_percent":0,"product_quantity":0,"is_featured":true,"meta_title":null,"meta_keyword":null,"meta_description":null,"__typename":"Product"},"ProductType:62b3e30e2669e09fc58ec6c2":{"id":"62b3e30e2669e09fc58ec6c2","slug":"home","__typename":"ProductType"},"ProductCategory:6328efabcc33d353511f3c6e":{"id":"6328efabcc33d353511f3c6e","slug":"todos-los-productos","__typename":"ProductCategory"},"ProductCategory:62b4a0cc5821c3a05b6749b4":{"id":"62b4a0cc5821c3a05b6749b4","slug":"verduleria","__typename":"ProductCategory"},"Product:6329b8cfcc33d353511f3c72":{"id":"6329b8cfcc33d353511f3c72","type":{"type":"id","generated":false,"id":"ProductType:62b3e30e2669e09fc58ec6c2","typename":"ProductType"},"categories":[{"type":"id","generated":false,"id":"ProductCategory:6328efabcc33d353511f3c6e","typename":"ProductCategory"},{"type":"id","generated":false,"id":"ProductCategory:62b4a0cc5821c3a05b6749b4","typename":"ProductCategory"}],"name":"Maple de 30 huevos de campo","slug":"maple-30-huevos","description":"Huevos frescos de campo, de gallinas libre de jaulas, alimentadas con maiz y alimento balanceado que contiene maiz, sorgo, trigo, soja, girasol, germen de trigo, sal y harina de conchilla. ","packagePrice":0,"images":{"type":"json","json":["images/Bxe1Jm5do-maple-shop.jpeg"]},"unit":"","price":700,"sale_price":0,"discount_in_percent":0,"product_quantity":0,"is_featured":true,"meta_title":null,"meta_keyword":null,"meta_description":null,"__typename":"Product"},"Product:6329bd13cc33d353511f3c74":{"id":"6329bd13cc33d353511f3c74","type":{"type":"id","generated":false,"id":"ProductType:62b3e30e2669e09fc58ec6c2","typename":"ProductType"},"categories":[{"type":"id","generated":false,"id":"ProductCategory:62b4a0cc5821c3a05b6749b4","typename":"ProductCategory"},{"type":"id","generated":false,"id":"ProductCategory:6328efabcc33d353511f3c6e","typename":"ProductCategory"}],"name":"Frutilla 100% orgánica. 3 kg","slug":"frutillas-3kg","description":"Frutilla 100% orgánica, cosechada el mismo dia que te la entregamos. Libre de agrotóxicos, usando con bio-fertilizante propios agroecologicos. ","packagePrice":null,"images":{"type":"json","json":["images/Gv7D5HX1n-frutis-shop.jpeg"]},"unit":"","price":2100,"sale_price":1800,"discount_in_percent":0,"product_quantity":0,"is_featured":true,"meta_title":null,"meta_keyword":null,"meta_description":null,"__typename":"Product"},"Product:6329befecc33d353511f3c75":{"id":"6329befecc33d353511f3c75","type":{"type":"id","generated":false,"id":"ProductType:62b3e30e2669e09fc58ec6c2","typename":"ProductType"},"categories":[{"type":"id","generated":false,"id":"ProductCategory:62b4a0cc5821c3a05b6749b4","typename":"ProductCategory"},{"type":"id","generated":false,"id":"ProductCategory:6328efabcc33d353511f3c6e","typename":"ProductCategory"}],"name":"Frutilla 100% orgánica. 1 kg","slug":"vinos-en-polvo","description":"Frutilla 100% orgánica, cosechada el mismo dia que te la entregamos. Libre de agrotóxicos, usando con bio-fertilizante propios agroecologicos. ","packagePrice":0,"images":{"type":"json","json":["images/fPGGX3t6g-frutis-shop.jpeg"]},"unit":"","price":700,"sale_price":0,"discount_in_percent":0,"product_quantity":0,"is_featured":true,"meta_title":null,"meta_keyword":null,"meta_description":null,"__typename":"Product"},"Product:6329bfdbcc33d353511f3c76":{"id":"6329bfdbcc33d353511f3c76","type":{"type":"id","generated":false,"id":"ProductType:62b3e30e2669e09fc58ec6c2","typename":"ProductType"},"categories":[{"type":"id","generated":false,"id":"ProductCategory:6328efabcc33d353511f3c6e","typename":"ProductCategory"},{"type":"id","generated":false,"id":"ProductCategory:62b4a0cc5821c3a05b6749b4","typename":"ProductCategory"}],"name":"Frutilla 100% orgánica. 2 kg","slug":"frutillas-2kg","description":"Frutilla 100% orgánica, cosechada el mismo dia que te la entregamos. Libre de agrotóxicos, usando con bio-fertilizante propios agroecologicos. ","packagePrice":null,"images":{"type":"json","json":["images/h3czrGWd1-frutis-shop.jpeg"]},"unit":"","price":1400,"sale_price":1300,"discount_in_percent":0,"product_quantity":1,"is_featured":true,"meta_title":null,"meta_keyword":null,"meta_description":null,"__typename":"Product"},"Product:6329c133cc33d353511f3c77":{"id":"6329c133cc33d353511f3c77","type":{"type":"id","generated":false,"id":"ProductType:62b3e30e2669e09fc58ec6c2","typename":"ProductType"},"categories":[{"type":"id","generated":false,"id":"ProductCategory:6328efabcc33d353511f3c6e","typename":"ProductCategory"},{"type":"id","generated":false,"id":"ProductCategory:6328ed9ccc33d353511f3c6d","typename":"ProductCategory"},{"type":"id","generated":false,"id":"ProductCategory:6328f029cc33d353511f3c6f","typename":"ProductCategory"}],"name":"SUPERMAGRO BIOFERTILIZANTE 250 cm3","slug":"magro-250ml","description":"<p><strong>Supermagro</strong> es un fertilizante totalmente orgánico de amplio espectro, con todos los micro/macro nutrientes cumpliendo con todas las necesidades<br>\nbásicas de un cultivo. Este biofertilizante es una de las mejores opciones al momento de nutrir y cuidar tus plantas.</p>\n<p><br>\n<strong>Contiene:</strong> alto en enzimas, ácidos húmicos, microorganismos benéficos y minerales. Aporta nitrógeno, fósforo, potasio, azufre, calcio, magnesio, manganeso, molibdeno, boro, hierro y cobre, en proporciones adecuadas y en condiciones de ser asimilados fácilmente.</p>\n<p><br>\n<strong>Origen</strong> totalmente orgánico y libre de agentes químicos nocivos para la salud mediante la fermentación de excretas de ganado, desechos orgánicos y minerales esenciales (harina de roca 100% orgánico) en ausencia de oxígeno dentro de un biodigestor. Todos obtenidos a menos de &nbsp;20km a la redonda de Rcia Chaco. &nbsp;&nbsp;&nbsp;&nbsp;</p>\n<p><br></p>\n<p><strong>Puede ser utilizado</strong> en múltiples cultivos, ya se trate de hortalizas de ciclo corto, plantas anuales, perennes, frutales, florales y ornamentales. Se puede usar también como corrector de carencias o para la recuperación de plantas dañadas.<br>\nSupermagro se ha probado en huertas, frutales, plantaciones agrícolas anuales, pastizales, flores y plantas ornamentales, logrando una mayor producción de frutos y una manifiesta reducción de enfermedades en los cultivos.<br>\n<br>\n<strong>Dosis de uso, período y momento de aplicación</strong><br>\n</p>\n<p>* Para una pulverización foliar, diluir con agua en una proporción de 1 hasta 5%.<br>\n* Repetir la aplicación aproximadamente dos veces por semana.<br>\n* Para la aplicación directa al suelo en huertas, frutales y pastizales, utilizar una dilución de 10 a 30%.<br>\n* Para tratamiento de semillas, sumergir en la solución y dejarla en remojo por 12 horas. Luego dejar secar. Utilizar una dilución de 25%.</p>\n<p><br></p>","packagePrice":100,"images":{"type":"json","json":["images/8PERpBZQs-supermagro.png"]},"unit":"","price":550,"sale_price":0,"discount_in_percent":0,"product_quantity":2,"is_featured":true,"meta_title":null,"meta_keyword":null,"meta_description":null,"__typename":"Product"},"ProductCategory:6328ed9ccc33d353511f3c6d":{"id":"6328ed9ccc33d353511f3c6d","slug":"insumos-para-cultivos","__typename":"ProductCategory"},"ProductCategory:6328f029cc33d353511f3c6f":{"id":"6328f029cc33d353511f3c6f","slug":"fertilizantes","__typename":"ProductCategory"},"Product:6329f6d5cc33d353511f3c7a":{"id":"6329f6d5cc33d353511f3c7a","type":{"type":"id","generated":false,"id":"ProductType:62b3e30e2669e09fc58ec6c2","typename":"ProductType"},"categories":[{"type":"id","generated":false,"id":"ProductCategory:6328efabcc33d353511f3c6e","typename":"ProductCategory"},{"type":"id","generated":false,"id":"ProductCategory:6328ed9ccc33d353511f3c6d","typename":"ProductCategory"},{"type":"id","generated":false,"id":"ProductCategory:6329f60ccc33d353511f3c78","typename":"ProductCategory"},{"type":"id","generated":false,"id":"ProductCategory:6329f61fcc33d353511f3c79","typename":"ProductCategory"}],"name":"PURÍN / EXTRACTO DE ORTIGA 250 cm3","slug":"purin-ortiga-250ml","description":"Nuestro <strong>Extracto de Ortiga</strong> 100% orgánico es el resultado de un proceso de fermentación controlada que da lugar a un preparado rico en bacteria fijadoras de nitrógeno, nutriente principal en cualquier cultivo, entre otras acciones detalladas en esta página. &nbsp;<br>\n<br>\n<strong>Contiene:</strong></p>\n<p>Nitrógeno, Hierro, Calcio, Potasio, Azufre, Fósforo, SIlicio, Mobildeno y Manganeso. &nbsp;<br>\n<br>\n<strong>Acción: </strong><br>\n*Insecticida y preventivo natural, actua especialmente en pulgones/ácaros &nbsp;como arañuela roja <br>\n*Sobre el follaje durante todo el año y se recomienda el uso en estadios vegetativos. <br>\n*Estimula la vida microbiana. <br>\n*Enriquece el compost. <br>\n*Estimula el crecimiento radicular. <br>\n*Favorece los procesos de lignificación, aportando mayor resistencia a los tejidos. <br>\n*Promueve la formación de clorofila.<br>\n *Induce la floración. Las flores son más abundantes, tienen colores más vivos y son fisicamente más fuertes. <br>\n*Aumenta la presencia de aceites esenciales. <br>\n*Aumenta la presencia de azúcares en el fruto, potenciando el gusto y alargando la conservación. &nbsp;<br>\n<br>\n<strong>Aplicación:</strong> &nbsp;<br>\n- Diluye el purín al 20% si lo utilizas <strong>como estimulante</strong> mediante <strong>riego</strong> en la base de las plantas. Ej. 2 litros de purín diluidos en 10 litros de agua desclorada. Se recomienda usar alternando con el riego de solo agua. &nbsp;<br>\n- Una dilución al 10% <strong>permite combatir</strong> los pulgones y los ácaros cuando se <strong>pulveriza sobre las hojas</strong>. Ej. 1 litro de purín diluidos en 10 litros de agua desclorada. Se recomienda 2 veces a la semana.<br>\n- Una dilución al 5% como tratamiento <strong>preventivo</strong> de enfermedades tambien <strong>pulverizando sobre las hojas</strong>. Ej. 0,5 litros de purín diluidos en 10 litros de agua desclorada. Se recomienda cada 2 semanas</p>","packagePrice":100,"images":{"type":"json","json":["images/hrwjk87ba-supermagro.png"]},"unit":"","price":500,"sale_price":0,"discount_in_percent":0,"product_quantity":13,"is_featured":true,"meta_title":null,"meta_keyword":null,"meta_description":null,"__typename":"Product"},"ProductCategory:6329f60ccc33d353511f3c78":{"id":"6329f60ccc33d353511f3c78","slug":"bioestimulante","__typename":"ProductCategory"},"ProductCategory:6329f61fcc33d353511f3c79":{"id":"6329f61fcc33d353511f3c79","slug":"repelente","__typename":"ProductCategory"},"Product:632a6fcbbde19f5f03c03ced":{"id":"632a6fcbbde19f5f03c03ced","type":{"type":"id","generated":false,"id":"ProductType:62b3e30e2669e09fc58ec6c2","typename":"ProductType"},"categories":[{"type":"id","generated":false,"id":"ProductCategory:6328efabcc33d353511f3c6e","typename":"ProductCategory"},{"type":"id","generated":false,"id":"ProductCategory:6328ed9ccc33d353511f3c6d","typename":"ProductCategory"},{"type":"id","generated":false,"id":"ProductCategory:6328f029cc33d353511f3c6f","typename":"ProductCategory"}],"name":"FERMENTO DE FRUTAS FFJ 250 cm3","slug":"ffj-250cm3","description":"<p>Es un <strong>jugo fermentado de frutas</strong> naturales &nbsp;siguiendo los principios de la <a href=\"https://www.resinacompany.com/2022/03/24/que-es-knf-agricultura-natural-coreana/\" target=\"_blank\"><strong>agricultura Coreana</strong></a>, y sirve como abono orgánico <strong>para mejorar y aumentar la producción de flores y/o frutos de cultivos</strong>.</p>\n<p><br></p>\n<p><strong>Origen</strong>: producción propia de Ditto Farm. Insumos: banana, mango, melón, uvas, manzana, frutillas, palta, remolacha, kiwi con azúcar de mascabo.</p>\n<p><br></p>\n<p><strong>Aplicación y dosificación</strong></p>\n<p>Debemos aplicarlo diluido en agua en una proporción de entre 1 en 1000 y 1 en 250. Es recomendable subir la cantidad de inóculo inicial conforme la floración avanza hasta una proporción 1 en 250, por ejemplo: 1ml en 250 ml de agua sin cloro (Click <a href=\"https://www.waterlogic.es/centro-de-recursos/que-contiene-el-agua-del-grifo/como-eliminar-el-cloro-del-agua-del-grifo/#:~:text=Poner%20agua%20a%20hervir%3A%20El,un%20estado%20delicado%20de%20salud.\" target=\"_blank\"><strong>aqui</strong></a> para aprender a sacar el cloro al agua de canilla).</p>\n<p><br></p>","packagePrice":100,"images":{"type":"json","json":["images/jAjL6hTNW-supermagro.png"]},"unit":"","price":550,"sale_price":0,"discount_in_percent":0,"product_quantity":3,"is_featured":true,"meta_title":null,"meta_keyword":null,"meta_description":null,"__typename":"Product"},"Product:632a8546bde19f5f03c03cee":{"id":"632a8546bde19f5f03c03cee","type":{"type":"id","generated":false,"id":"ProductType:62b3e30e2669e09fc58ec6c2","typename":"ProductType"},"categories":[{"type":"id","generated":false,"id":"ProductCategory:6328efabcc33d353511f3c6e","typename":"ProductCategory"},{"type":"id","generated":false,"id":"ProductCategory:6328ed9ccc33d353511f3c6d","typename":"ProductCategory"},{"type":"id","generated":false,"id":"ProductCategory:6328f029cc33d353511f3c6f","typename":"ProductCategory"}],"name":"MELAZA DE CAÑA NO SULFURADA 100% PURA 250cc","slug":"melaza-250ml","description":"<p>Se utiliza popularmente como <strong>potenciador</strong> de la floración en los cultivos domésticos orgánicos de todo tipo, así como también en la preparación de mezclas para fortalecer las raíces de las plantas ( anti-estres para los transplantes), entre otros usos.<br>\n<br>\n<strong>Origen:<br>\n</strong>Elaborada <strong>a tan solo 80km</strong> de Resistencia Chaco, mas precisamente <strong>en La Leonesa</strong>, cultivada y cosechada por un productor de esa localidad, utilizando fertilizantes orgánicos.<br>\n</p>\n<br>\n<p><strong>Modo de uso</strong><br>\n- Usar en <strong>riegos</strong> o <strong>pulverizando</strong> en hojas de cualquier tipo de planta entre 1 y 2 veces por semana, añadiendo 4-5ml de melaza por litro de agua tibia (no clorada, mirá <a href=\"https://www.waterlogic.es/centro-de-recursos/que-contiene-el-agua-del-grifo/como-eliminar-el-cloro-del-agua-del-grifo/#:~:text=Poner%20agua%20a%20hervir%3A%20El,un%20estado%20delicado%20de%20salud.\" target=\"_blank\"><strong>aquí</strong></a> como desclorar el agua de canilla).</p>","packagePrice":50,"images":{"type":"json","json":["images/1N6RFZFL5-supermagro.png"]},"unit":"","price":200,"sale_price":0,"discount_in_percent":0,"product_quantity":0,"is_featured":true,"meta_title":null,"meta_keyword":null,"meta_description":null,"__typename":"Product"},"Product:632a8e32bde19f5f03c03cf0":{"id":"632a8e32bde19f5f03c03cf0","type":{"type":"id","generated":false,"id":"ProductType:62b3e30e2669e09fc58ec6c2","typename":"ProductType"},"categories":[{"type":"id","generated":false,"id":"ProductCategory:6328efabcc33d353511f3c6e","typename":"ProductCategory"},{"type":"id","generated":false,"id":"ProductCategory:6328ed9ccc33d353511f3c6d","typename":"ProductCategory"},{"type":"id","generated":false,"id":"ProductCategory:6329f60ccc33d353511f3c78","typename":"ProductCategory"}],"name":"BACTERIAS ÁCIDO LÁCTICAS (BAL) 250ml","slug":"labs-250ml","description":"<p><strong>Intro<br>\n</strong>El cultivo de cannabis ecológico evita los fertilizantes químicos basados en sales para favorecer la “vida microbiana\" del suelo. Eso no significa que estés obligado a alimentar a un montón de bichos. El microrrebaño es una compleja comunidad de microorganismos beneficiosos que incluye bacterias, hongos, algas, levaduras y otros organismos.</p>\n<p>Con este tipo de jardinería alimentas al rebaño y, a medida que los microorganismos &nbsp;digieren su comida, los subproductos que generan alimentan a tus plantas. Esta técnica natural está perfectamente equilibrada y, si se realiza correctamente, elimina prácticamente problemas como la sobrefertilización, las deficiencias y los bloqueos de nutrientes. Ni siquiera tendrás que preocuparte por el valor de pH.</p>\n<p>¿Pero, significa que tendrás que renunciar a la potencia al renunciar a los estimuladores de floración y potenciadores de THC? No necesariamente. Las bacterias ácido lácticas (BAL) incluso pueden funcionar mejor.<br>\n<br>\n<strong>¿QUÉ SON LAS BACTERIAS ÁCIDO LÁCTICAS?</strong></p>\n<p>Las bacterias de ácido láctico (BAL) constituyen un grupo amplio y heterogéneo de microorganismos aptos para la alimentación que se utilizan para hacer yogur, encurtidos y otros alimentos fermentados. A veces, los procesadores de alimentos también utilizan las BAL como desinfectantes. Cuando se añaden a un líquido o a un sólido que contiene algún tipo de azúcar, las BAL consumen y digieren el azúcar, y luego excretan ácido láctico como metabolito final.</p>\n<p>Estas bacterias no solo son inocuas, sino que son tan buenas para ti como para tus plantas de cannabis. Tienes bacterias del ácido láctico en el microbioma individual de tu tracto digestivo, y muchos médicos recomiendan añadir un suplemento probiótico que contenga Lacto-B si sueles tener problemas estomacales. Por ejemplo, comer regularmente yogur (un alimento probiótico) también ayuda.<br>\n<strong><br>\n¿CÓMO PUEDEN LAS BAL MEJORAR UN CULTIVO DE CANNABIS?</strong></p>\n<p>En teoría, la adición de bacterias ácido lácticas a tu cultivo ecológico aumentará la producción de tricomas y terpenos. Esta teoría está respaldada por investigaciones científicas reales que puedes leer en The Plant Journal<a href=\"https://www.royalqueenseeds.es/blog-las-bacterias-acido-lacticas-bal-aumentan-potencia-terpenos-y-cosechas-n1153#ext_res-1\"><u><strong>[1]</strong></u></a> y en Frontiers in Plant Science<a href=\"https://www.royalqueenseeds.es/blog-las-bacterias-acido-lacticas-bal-aumentan-potencia-terpenos-y-cosechas-n1153#ext_res-2\"><u><strong>[2]</strong></u></a>.</p>\n<p>Aquí está la versión simple. Al digerir los azúcares, tus BAL crean como subproducto un ácido graso de cadena corta llamado hexanoato. Las plantas de cannabis sintetizan el hexanoato para producir terpenos y cannabinoides. Al añadir más hexanoato, proporcionas los componentes básicos para más obtener terpenos y, teóricamente, más THC.</p>\n<p>Otro estudio analiza cómo los agricultores de todo tipo pueden utilizar las BAL para potenciar el crecimiento de las plantas<a href=\"https://www.royalqueenseeds.es/blog-las-bacterias-acido-lacticas-bal-aumentan-potencia-terpenos-y-cosechas-n1153#ext_res-3\"><u><strong>[3]</strong></u></a> haciendo que los fertilizantes orgánicos tengan una mayor biodisponibilidad, y previniendo enfermedades mediante la supresión de múltiples tipos de hongos y bacterias nocivas. Esto da lugar a plantas de cannabis más grandes y saludables, que por lo tanto producen más.<br>\n<br>\n<strong>¿CÓMO PUEDO AÑADIR BAL A MI CULTIVO?</strong></p>\n<p>Si estás cultivando de forma ecológica y utilizas el método sin laboreo, es probable que tu suelo ya contenga lactobacilos. Las bacterias ácido lácticas están en todas partes, incluso en el aire, por lo que llegarán a tu suelo a medida que las hojas y otras materias lleguen a la superficie y comiencen a descomponerse. Las BAL que ya estén presentes en tu suelo también se alimentarán de la materia orgánica vieja.</p>\n<p>La mayoría de las BAL de tu suelo se encuentran a menos de 15cm de la superficie, ya que tienden a crecer más en regiones ricas en oxígeno. Los microorganismos que entran en esta categoría se denominan anaerobios facultativos del suelo. Esto significa que, si quieres, deberías poder enriquecer tu suelo desde su superficie con bacterias lácticas adicionales, aunque no todo el mundo cree que sea posible.</p>\n<p>Si quieres probar, puedes añadir suero de bacterias ácido lácticas (LABS) al agua y echarlo en el suelo o directamente sobre las plantas.</p>\n<strong>¿QUÉ DEBO EVITAR AL USAR BACTERIAS ÁCIDO LÁCTICAS?</strong>\n<p>Cuando intentes fomentar una vida microbiana saludable, evita aplicar fertilizantes químicos basados en sales en tu suelo. Matarán a la mayoría de tus microbios beneficiosos y permitirán que sobrevivan algunos de los dañinos.</p>\n<p>Evita remover el suelo tanto como sea posible. La mayor cantidad de BAL estará justo bajo la superficie, y exponerlas a la luz UV puede matarlas. Por eso también debes aplicar bacterias ácido lácticas por la noche o justo antes de apagar las luces.</p>\n<p><br>\n<strong>Modo de uso</strong></p>\n<p>Para usarlo, diluye el suero mezclando 30ml en 1 litro de agua declorada.<br>\n<br>\n<strong>Modo de conservación</strong></p>\n<p>Si no puedes refrigerar el suero, puedes estabilizarlo añadiendo una parte igual de melaza o azúcar moreno a la mezcla. Esto le da a tu cultivo de BAL algo de lo que alimentarse mientras espera que lo utilices en tus plantas de cannabis.</p>","packagePrice":50,"images":{"type":"json","json":["images/n-GNcbiYi-supermagro.png"]},"unit":"","price":300,"sale_price":0,"discount_in_percent":0,"product_quantity":0,"is_featured":true,"meta_title":null,"meta_keyword":null,"meta_description":null,"__typename":"Product"},"Product:632b4a2bbde19f5f03c03cf3":{"id":"632b4a2bbde19f5f03c03cf3","type":{"type":"id","generated":false,"id":"ProductType:62b3e30e2669e09fc58ec6c2","typename":"ProductType"},"categories":[{"type":"id","generated":false,"id":"ProductCategory:6328efabcc33d353511f3c6e","typename":"ProductCategory"},{"type":"id","generated":false,"id":"ProductCategory:6328ed9ccc33d353511f3c6d","typename":"ProductCategory"},{"type":"id","generated":false,"id":"ProductCategory:6328f029cc33d353511f3c6f","typename":"ProductCategory"}],"name":"CALCIO SOLUBLE EN AGUA (CSA) 250ml","slug":"csa-250ml","description":"<p>Esta solución es el resultado de un proceso totalmente orgánico en el que se extrae el carbonato de <strong>calcio</strong> de las cáscaras de huevo en el que el carbonato de calcio es el componente principal mediante el uso de vinagre. A través de este proceso el carbonato de calcio se cambia a calcio soluble en agua que puede ser absorbido por el cultivo.<br>\n</p>\n<p><strong>Origen</strong>: producción propia de Ditto Farm, es el secreto de nuestras frutillas deliciosas! Insumos: cascaras de huevos de nuestras propias gallinas, alcohol de arroz integral.</p>\n<p><br>\n<strong>Características del calcio</strong><br>\nEl calcio contribuye a una mejor utilización de los carbohidratos y las proteínas. Es un <strong>componente importante</strong> en la formación de membranas celulares y permite la división celular (<strong>una mejor calidad de cascara en frutales</strong>).<br>\nEl calcio <strong>protege</strong> los cultivos del <strong>crecimiento excesivo</strong>.<br>\nEl calcio hace las <strong>frutas firmes</strong> y <strong>prolonga el período de almacenamiento.</strong><br>\nEl calcio promueve la absorción del ácido fosfórico y es responsable de la acumulación de nutrientes en los cultivos.<br>\nCalcio funciona para llevar y acumular nutrientes.<br>\nEl calcio juega un papel muy importante en el mantenimiento de la salud de la planta</p>\n<p><br></p>\n<p><strong>Síntomas de una deficiencia de calcio</strong><br>\nRaíces subdesarrolladas y pelos de la raíz débiles. Esto se debe a que el protoplasma normal de la célula no se forma debido a la deficiencia de calcio.<br>\nLas hojas se decoloran a un color parduzco y luego se secan.<br>\nVainas de frijol vacías.<br>\nMala maduración de frutas y verduras. Ácido orgánico excesivo y humedad, falta de contenido de azúcar, suavizado de la carne de la fruta, fragancia insuficiente.<br>\nLas hortalizas de hoja se contraen con la enfermedad de Rhizoctonia.<br>\nLas hortalizas de raíz se vuelven concisas y huecas, carecen de contenido de azúcar y duran menos tiempo almacenadas.<br>\nLas plantas de arroz y de cebada sufren problemas como humedad excesiva, baja acumulación de almidón, falta de brillo y fragancia y son susceptibles a enfermedades e insectos.<br>\n</p>\n<p><strong>Cómo utilizar</strong><br>\nDiluir con agua. La dilución básica es 1ml /1l de agua desclorada..<br>\nCSA es muy eficaz durante el período de cruce entre crecimiento vegetativo y reproductivo.<br>\nFumiga CSA en las hojas varias veces después que las frutas se han convertido en algo grande para evitar el crecimiento excesivo y para ayudar a producir frutos sólidos.<br>\nCSA hace que los nutrientes se acumulen en las flores y las frutas. Como resultado, los capullos florales se vuelven fuertes y pueden prepararse para obtener mayores rendimientos al año siguiente y frutos sustanciales en la próxima cosecha.<br>\nLa CSA tiene el efecto de mejorar el sabor y la fragancia de la fruta cuando se usa con fosfato de calcio soluble en agua, aminoácido de pescado, jugo de frutas fermentadas (frutas inmaduras) y sal marina (4g x 20l).</p>\n<p><br></p>","packagePrice":50,"images":{"type":"json","json":["images/HwbP-mOWN-supermagro.png"]},"unit":"","price":300,"sale_price":0,"discount_in_percent":0,"product_quantity":1,"is_featured":true,"meta_title":null,"meta_keyword":null,"meta_description":null,"__typename":"Product"},"Product:632b50bcbde19f5f03c03cf4":{"id":"632b50bcbde19f5f03c03cf4","type":{"type":"id","generated":false,"id":"ProductType:62b3e30e2669e09fc58ec6c2","typename":"ProductType"},"categories":[{"type":"id","generated":false,"id":"ProductCategory:6328efabcc33d353511f3c6e","typename":"ProductCategory"},{"type":"id","generated":false,"id":"ProductCategory:632b1176bde19f5f03c03cf2","typename":"ProductCategory"}],"name":"BÁLSAMO DE CANNABIS 100% NATURAL. 250ml","slug":"balsamo-cannabis-250ml","description":"<p>Es un potente antiinflamatorio y analgésico natural a base de una <strong>maceración de alcohol y aceites&nbsp;</strong>mezclados con cannabis de una cepa medicinal 100% orgánica.</p>\n<p><br></p>\n<p><strong>Origen</strong>: producción propia de Ditto Farm. Insumos: manicura fina de marihuana con proporciones 1:1 de thc/cbd, alcohol desnaturalizado (70%) y extracto de eucalipto&nbsp;</p>\n<p><br></p>\n<p><strong>Usos y beneficios:</strong></p>\n<p>Indicado para<strong> dolores musculares y articulares en general</strong>, normalmente <strong>dolores de tipo crónico,</strong> como <strong>artrosis, artritis</strong>, reumas, fibromialgias<strong>,</strong> etc…</p>\n<p>El <strong>aceite de cáñamo</strong> es eficaz también en el <strong>tratamiento de dolencias de la piel</strong> como eczemas, psoriasis, dermatitis atópica<br>\nEste <strong>bálsamo</strong> tiene una textura untuosa, algo aceitosa, que permite que se extienda y penetre en la piel muy fácilmente.</p>\n<p>Su aroma fresco y mentolado proporciona una <strong>sensación inmediata de paz y calma</strong>.</p>\n<p><br></p>\n<p><strong>Modo de uso:</strong></p>\n<p>Se aplica como una pomada masajeando la zona afectada y se absorbe muy rápidamente.</p>\n<p>No es necesario enjuagar.</p>\n<p>Es preferible usar muy poquita cantidad 2 o 3 veces al día.</p>\n<p>Está indicado para uso diario.</p>\n<p><br></p>\n<p><strong>Consejos de almacenamiento</strong></p>\n<p>Mantenga este producto en un lugar oscuro y fresco, como un armario de cocina, y fuera del alcance de los niños.</p>\n<p><br></p>","packagePrice":50,"images":{"type":"json","json":["images/HykHayNrM-supermagro.png"]},"unit":"","price":400,"sale_price":0,"discount_in_percent":0,"product_quantity":1,"is_featured":true,"meta_title":null,"meta_keyword":null,"meta_description":null,"__typename":"Product"},"ProductCategory:632b1176bde19f5f03c03cf2":{"id":"632b1176bde19f5f03c03cf2","slug":"remedios-naturales","__typename":"ProductCategory"},"$ROOT_QUERY.products({\"offset\":0,\"type\":\"home\"})":{"items":[{"type":"id","generated":false,"id":"Product:630fde44424018a191b5d0cf","typename":"Product"},{"type":"id","generated":false,"id":"Product:6329b8cfcc33d353511f3c72","typename":"Product"},{"type":"id","generated":false,"id":"Product:6329bd13cc33d353511f3c74","typename":"Product"},{"type":"id","generated":false,"id":"Product:6329befecc33d353511f3c75","typename":"Product"},{"type":"id","generated":false,"id":"Product:6329bfdbcc33d353511f3c76","typename":"Product"},{"type":"id","generated":false,"id":"Product:6329c133cc33d353511f3c77","typename":"Product"},{"type":"id","generated":false,"id":"Product:6329f6d5cc33d353511f3c7a","typename":"Product"},{"type":"id","generated":false,"id":"Product:632a6fcbbde19f5f03c03ced","typename":"Product"},{"type":"id","generated":false,"id":"Product:632a8546bde19f5f03c03cee","typename":"Product"},{"type":"id","generated":false,"id":"Product:632a8e32bde19f5f03c03cf0","typename":"Product"},{"type":"id","generated":false,"id":"Product:632b4a2bbde19f5f03c03cf3","typename":"Product"},{"type":"id","generated":false,"id":"Product:632b50bcbde19f5f03c03cf4","typename":"Product"}],"totalCount":18,"hasMore":true,"__typename":"ProductPaginationType"},"ROOT_QUERY":{"products({\"offset\":0,\"type\":\"home\"})":{"type":"id","generated":true,"id":"$ROOT_QUERY.products({\"offset\":0,\"type\":\"home\"})","typename":"ProductPaginationType"},"shopCategories({\"type\":\"home\"})":{"type":"id","generated":true,"id":"$ROOT_QUERY.shopCategories({\"type\":\"home\"})","typename":"CatetgoryPaginationType"}},"$ROOT_QUERY.shopCategories({\"type\":\"home\"})":{"items":[],"totalCount":0,"hasMore":false,"__typename":"CatetgoryPaginationType"}}},"__N_SSG":true}