{"pageProps":{"initialApolloState":{"Product:6756248c783e613c5e037353":{"id":"6756248c783e613c5e037353","type":{"type":"id","generated":false,"id":"ProductType:62b3e30e2669e09fc58ec6c2","typename":"ProductType"},"categories":[{"type":"id","generated":false,"id":"ProductCategory:6328efabcc33d353511f3c6e","typename":"ProductCategory"},{"type":"id","generated":false,"id":"ProductCategory:6759d2c33ae248a83a69c433","typename":"ProductCategory"},{"type":"id","generated":false,"id":"ProductCategory:6759d3e13ae248a83a69c436","typename":"ProductCategory"}],"name":"CHAUCHA FINA X 1/4KG","slug":"CHAUCHA FINA","description":null,"packagePrice":0,"images":{"type":"json","json":["images/ZY536IAtk-chaucha fina convertida.webp"]},"unit":null,"price":1250,"sale_price":null,"discount_in_percent":null,"product_quantity":1000,"is_featured":true,"is_online":true,"meta_title":null,"meta_keyword":null,"meta_description":null,"__typename":"Product"},"ProductType:62b3e30e2669e09fc58ec6c2":{"id":"62b3e30e2669e09fc58ec6c2","slug":null,"__typename":"ProductType"},"ProductCategory:6328efabcc33d353511f3c6e":{"id":"6328efabcc33d353511f3c6e","slug":"todos-los-productos","__typename":"ProductCategory"},"ProductCategory:6759d2c33ae248a83a69c433":{"id":"6759d2c33ae248a83a69c433","slug":"frutas-y-verduras","__typename":"ProductCategory"},"ProductCategory:6759d3e13ae248a83a69c436":{"id":"6759d3e13ae248a83a69c436","slug":"hortalizas-de-fruto-tallo-y-raiz","__typename":"ProductCategory"},"Product:681f645d77cf669765d16c0b":{"id":"681f645d77cf669765d16c0b","type":{"type":"id","generated":false,"id":"ProductType:62b3e30e2669e09fc58ec6c2","typename":"ProductType"},"categories":[{"type":"id","generated":false,"id":"ProductCategory:6759d3e13ae248a83a69c436","typename":"ProductCategory"},{"type":"id","generated":false,"id":"ProductCategory:6759d2c33ae248a83a69c433","typename":"ProductCategory"}],"name":"LIMON X UNIDAD","slug":"LIMON","description":null,"packagePrice":0,"images":{"type":"json","json":["images/cP9mWy-Nb-limon.webp"]},"unit":null,"price":500,"sale_price":null,"discount_in_percent":null,"product_quantity":999,"is_featured":true,"is_online":true,"meta_title":null,"meta_keyword":null,"meta_description":null,"__typename":"Product"},"Product:681f640dc69cea82c1975c72":{"id":"681f640dc69cea82c1975c72","type":{"type":"id","generated":false,"id":"ProductType:62b3e30e2669e09fc58ec6c2","typename":"ProductType"},"categories":[{"type":"id","generated":false,"id":"ProductCategory:6759d3e13ae248a83a69c436","typename":"ProductCategory"},{"type":"id","generated":false,"id":"ProductCategory:6759d2c33ae248a83a69c433","typename":"ProductCategory"}],"name":"PALTA CHILENA X UNIDAD","slug":"palta-chilena","description":null,"packagePrice":0,"images":{"type":"json","json":["images/wqzY20HPV-palta chilena.webp"]},"unit":null,"price":1500,"sale_price":null,"discount_in_percent":null,"product_quantity":9999,"is_featured":true,"is_online":true,"meta_title":null,"meta_keyword":null,"meta_description":null,"__typename":"Product"},"Product:681e43537eae158239fedc7b":{"id":"681e43537eae158239fedc7b","type":{"type":"id","generated":false,"id":"ProductType:62b3e30e2669e09fc58ec6c2","typename":"ProductType"},"categories":[{"type":"id","generated":false,"id":"ProductCategory:6759d36b3ae248a83a69c434","typename":"ProductCategory"}],"name":"6 HUEVOS COLORADOS M \"DOBLE A\"","slug":"huevos-seis","description":null,"packagePrice":0,"images":{"type":"json","json":["images/BdzTh9beQ-6 huevos.webp"]},"unit":null,"price":1500,"sale_price":null,"discount_in_percent":null,"product_quantity":996,"is_featured":true,"is_online":true,"meta_title":null,"meta_keyword":null,"meta_description":null,"__typename":"Product"},"ProductCategory:6759d36b3ae248a83a69c434":{"id":"6759d36b3ae248a83a69c434","slug":"huevos-y-lacteos","__typename":"ProductCategory"},"Product:67576352783e613c5e03735a":{"id":"67576352783e613c5e03735a","type":{"type":"id","generated":false,"id":"ProductType:62b3e30e2669e09fc58ec6c2","typename":"ProductType"},"categories":[{"type":"id","generated":false,"id":"ProductCategory:6328efabcc33d353511f3c6e","typename":"ProductCategory"},{"type":"id","generated":false,"id":"ProductCategory:6759d3e13ae248a83a69c436","typename":"ProductCategory"},{"type":"id","generated":false,"id":"ProductCategory:6759d2c33ae248a83a69c433","typename":"ProductCategory"}],"name":"PAPA X 1/4 KG","slug":"PAPA","description":null,"packagePrice":0,"images":{"type":"json","json":["images/mX4xUzxS3-papa 1 convertida.webp"]},"unit":null,"price":500,"sale_price":null,"discount_in_percent":null,"product_quantity":1000,"is_featured":true,"is_online":true,"meta_title":null,"meta_keyword":null,"meta_description":null,"__typename":"Product"},"Product:6757624d783e613c5e037359":{"id":"6757624d783e613c5e037359","type":{"type":"id","generated":false,"id":"ProductType:62b3e30e2669e09fc58ec6c2","typename":"ProductType"},"categories":[{"type":"id","generated":false,"id":"ProductCategory:6328efabcc33d353511f3c6e","typename":"ProductCategory"},{"type":"id","generated":false,"id":"ProductCategory:6759d3e13ae248a83a69c436","typename":"ProductCategory"},{"type":"id","generated":false,"id":"ProductCategory:6759d2c33ae248a83a69c433","typename":"ProductCategory"}],"name":"CEBOLLA BLANCA X 1/4 KG","slug":"CEBOLLA","description":null,"packagePrice":0,"images":{"type":"json","json":["images/W6ThFjpwk-cebolla-blanca.webp"]},"unit":null,"price":750,"sale_price":null,"discount_in_percent":null,"product_quantity":1000,"is_featured":true,"is_online":true,"meta_title":null,"meta_keyword":null,"meta_description":null,"__typename":"Product"},"Product:67576112783e613c5e037358":{"id":"67576112783e613c5e037358","type":{"type":"id","generated":false,"id":"ProductType:62b3e30e2669e09fc58ec6c2","typename":"ProductType"},"categories":[{"type":"id","generated":false,"id":"ProductCategory:6328efabcc33d353511f3c6e","typename":"ProductCategory"},{"type":"id","generated":false,"id":"ProductCategory:6759d3e13ae248a83a69c436","typename":"ProductCategory"},{"type":"id","generated":false,"id":"ProductCategory:6759d2c33ae248a83a69c433","typename":"ProductCategory"}],"name":"CEBOLLA MORADA X 1/4 KG","slug":"CEBOLLA-MORADA","description":null,"packagePrice":0,"images":{"type":"json","json":["images/w6HMiXPfa-CEBOLLA MORADA (1 CONVERTIDA ).webp"]},"unit":null,"price":1000,"sale_price":null,"discount_in_percent":null,"product_quantity":1000,"is_featured":true,"is_online":true,"meta_title":null,"meta_keyword":null,"meta_description":null,"__typename":"Product"},"Product:67576005783e613c5e037357":{"id":"67576005783e613c5e037357","type":{"type":"id","generated":false,"id":"ProductType:62b3e30e2669e09fc58ec6c2","typename":"ProductType"},"categories":[{"type":"id","generated":false,"id":"ProductCategory:6328efabcc33d353511f3c6e","typename":"ProductCategory"},{"type":"id","generated":false,"id":"ProductCategory:6759d3e13ae248a83a69c436","typename":"ProductCategory"},{"type":"id","generated":false,"id":"ProductCategory:6759d2c33ae248a83a69c433","typename":"ProductCategory"}],"name":"PEPINO X 1/4 KG","slug":"PEPINO","description":null,"packagePrice":0,"images":{"type":"json","json":["images/JdYopF3xN-PEPINO WALMART (1) convertido.webp"]},"unit":null,"price":750,"sale_price":null,"discount_in_percent":null,"product_quantity":1000,"is_featured":true,"is_online":true,"meta_title":null,"meta_keyword":null,"meta_description":null,"__typename":"Product"},"Product:67575ea9783e613c5e037356":{"id":"67575ea9783e613c5e037356","type":{"type":"id","generated":false,"id":"ProductType:62b3e30e2669e09fc58ec6c2","typename":"ProductType"},"categories":[{"type":"id","generated":false,"id":"ProductCategory:6328efabcc33d353511f3c6e","typename":"ProductCategory"},{"type":"id","generated":false,"id":"ProductCategory:6759d3873ae248a83a69c435","typename":"ProductCategory"},{"type":"id","generated":false,"id":"ProductCategory:6759d2c33ae248a83a69c433","typename":"ProductCategory"}],"name":"LECHUGA MANTECOSA X UNIDAD","slug":"LECHUGA-MANTECOSA","description":null,"packagePrice":0,"images":{"type":"json","json":["images/jSka_Ih0E-lechuga-mantecosa1 convertida.webp"]},"unit":null,"price":2000,"sale_price":null,"discount_in_percent":null,"product_quantity":9997,"is_featured":true,"is_online":true,"meta_title":null,"meta_keyword":null,"meta_description":null,"__typename":"Product"},"ProductCategory:6759d3873ae248a83a69c435":{"id":"6759d3873ae248a83a69c435","slug":"hortalizas-de-hoja","__typename":"ProductCategory"},"Product:67575e0e783e613c5e037355":{"id":"67575e0e783e613c5e037355","type":{"type":"id","generated":false,"id":"ProductType:62b3e30e2669e09fc58ec6c2","typename":"ProductType"},"categories":[{"type":"id","generated":false,"id":"ProductCategory:6328efabcc33d353511f3c6e","typename":"ProductCategory"},{"type":"id","generated":false,"id":"ProductCategory:6759d3873ae248a83a69c435","typename":"ProductCategory"},{"type":"id","generated":false,"id":"ProductCategory:6759d2c33ae248a83a69c433","typename":"ProductCategory"}],"name":"LECHUGA REPOLLADA X UNIDAD","slug":"LECHUGA-REPOLLADA","description":null,"packagePrice":0,"images":{"type":"json","json":["images/0I45cuQR6-lechuga repollada convertida.webp"]},"unit":null,"price":2000,"sale_price":null,"discount_in_percent":null,"product_quantity":1000,"is_featured":true,"is_online":true,"meta_title":null,"meta_keyword":null,"meta_description":null,"__typename":"Product"},"Product:67567000783e613c5e037354":{"id":"67567000783e613c5e037354","type":{"type":"id","generated":false,"id":"ProductType:62b3e30e2669e09fc58ec6c2","typename":"ProductType"},"categories":[{"type":"id","generated":false,"id":"ProductCategory:6328efabcc33d353511f3c6e","typename":"ProductCategory"},{"type":"id","generated":false,"id":"ProductCategory:6759d3e13ae248a83a69c436","typename":"ProductCategory"},{"type":"id","generated":false,"id":"ProductCategory:6759d2c33ae248a83a69c433","typename":"ProductCategory"}],"name":"ZAPALLITO TRONCO X 1/4 KG","slug":"ZAPALLITO-TRONCO","description":null,"packagePrice":0,"images":{"type":"json","json":["images/bYAlYtiW5-zapallito tronco (1) convertido.webp"]},"unit":null,"price":400,"sale_price":null,"discount_in_percent":null,"product_quantity":1000,"is_featured":true,"is_online":true,"meta_title":null,"meta_keyword":null,"meta_description":null,"__typename":"Product"},"Product:681f64d11fb04797f707e36e":{"id":"681f64d11fb04797f707e36e","type":{"type":"id","generated":false,"id":"ProductType:62b3e30e2669e09fc58ec6c2","typename":"ProductType"},"categories":[{"type":"id","generated":false,"id":"ProductCategory:6759d2c33ae248a83a69c433","typename":"ProductCategory"},{"type":"id","generated":false,"id":"ProductCategory:6759d3e13ae248a83a69c436","typename":"ProductCategory"}],"name":"ZANAHORIA X 1/4 KG","slug":"ZANAHORIA","description":null,"packagePrice":null,"images":{"type":"json","json":["images/2vbtMxENf-zanahoria.webp"]},"unit":null,"price":500,"sale_price":null,"discount_in_percent":null,"product_quantity":999,"is_featured":true,"is_online":true,"meta_title":null,"meta_keyword":null,"meta_description":null,"__typename":"Product"},"Product:67562298783e613c5e037352":{"id":"67562298783e613c5e037352","type":{"type":"id","generated":false,"id":"ProductType:62b3e30e2669e09fc58ec6c2","typename":"ProductType"},"categories":[{"type":"id","generated":false,"id":"ProductCategory:6328efabcc33d353511f3c6e","typename":"ProductCategory"},{"type":"id","generated":false,"id":"ProductCategory:6759d3e13ae248a83a69c436","typename":"ProductCategory"},{"type":"id","generated":false,"id":"ProductCategory:6759d2c33ae248a83a69c433","typename":"ProductCategory"}],"name":"CHAUCHA ANCHA X 1/4 KG","slug":"CHAUCHA-ANCHA","description":null,"packagePrice":0,"images":{"type":"json","json":["images/PoOLDvoIK-chaucha ancha (1) convertida.webp"]},"unit":null,"price":1125,"sale_price":null,"discount_in_percent":null,"product_quantity":1000,"is_featured":true,"is_online":true,"meta_title":null,"meta_keyword":null,"meta_description":null,"__typename":"Product"},"Product:67562121783e613c5e037351":{"id":"67562121783e613c5e037351","type":{"type":"id","generated":false,"id":"ProductType:62b3e30e2669e09fc58ec6c2","typename":"ProductType"},"categories":[{"type":"id","generated":false,"id":"ProductCategory:6328efabcc33d353511f3c6e","typename":"ProductCategory"},{"type":"id","generated":false,"id":"ProductCategory:6759d3e13ae248a83a69c436","typename":"ProductCategory"},{"type":"id","generated":false,"id":"ProductCategory:6759d2c33ae248a83a69c433","typename":"ProductCategory"}],"name":"COLIFLOR MORADO X UNIDAD","slug":"COLIFLOR MORADO","description":null,"packagePrice":0,"images":{"type":"json","json":["images/O2nFGvQTF-coliflor morado convertido.webp"]},"unit":null,"price":1000,"sale_price":null,"discount_in_percent":null,"product_quantity":1000,"is_featured":true,"is_online":false,"meta_title":null,"meta_keyword":null,"meta_description":null,"__typename":"Product"},"Product:67561f11783e613c5e037350":{"id":"67561f11783e613c5e037350","type":{"type":"id","generated":false,"id":"ProductType:62b3e30e2669e09fc58ec6c2","typename":"ProductType"},"categories":[{"type":"id","generated":false,"id":"ProductCategory:6328efabcc33d353511f3c6e","typename":"ProductCategory"},{"type":"id","generated":false,"id":"ProductCategory:6759d3e13ae248a83a69c436","typename":"ProductCategory"},{"type":"id","generated":false,"id":"ProductCategory:6759d2c33ae248a83a69c433","typename":"ProductCategory"}],"name":"COLIFLOR BLANCO X UNIDAD","slug":"COLIFLOR","description":null,"packagePrice":0,"images":{"type":"json","json":["images/W_OylDw3d-coliflor.webp"]},"unit":null,"price":2000,"sale_price":null,"discount_in_percent":null,"product_quantity":1000,"is_featured":true,"is_online":true,"meta_title":null,"meta_keyword":null,"meta_description":null,"__typename":"Product"},"Product:6754dc29783e613c5e03734f":{"id":"6754dc29783e613c5e03734f","type":{"type":"id","generated":false,"id":"ProductType:62b3e30e2669e09fc58ec6c2","typename":"ProductType"},"categories":[{"type":"id","generated":false,"id":"ProductCategory:6328efabcc33d353511f3c6e","typename":"ProductCategory"},{"type":"id","generated":false,"id":"ProductCategory:6759d3e13ae248a83a69c436","typename":"ProductCategory"},{"type":"id","generated":false,"id":"ProductCategory:6759d2c33ae248a83a69c433","typename":"ProductCategory"}],"name":"REPOLLO MORADO X 1/4KG","slug":"REPOLLO-MORADO","description":null,"packagePrice":0,"images":{"type":"json","json":["images/iGgAHyik9-repollo morado.webp"]},"unit":null,"price":2000,"sale_price":null,"discount_in_percent":null,"product_quantity":999,"is_featured":true,"is_online":true,"meta_title":null,"meta_keyword":null,"meta_description":null,"__typename":"Product"},"Product:6754db14783e613c5e03734e":{"id":"6754db14783e613c5e03734e","type":{"type":"id","generated":false,"id":"ProductType:62b3e30e2669e09fc58ec6c2","typename":"ProductType"},"categories":[{"type":"id","generated":false,"id":"ProductCategory:6328efabcc33d353511f3c6e","typename":"ProductCategory"},{"type":"id","generated":false,"id":"ProductCategory:6759d3e13ae248a83a69c436","typename":"ProductCategory"},{"type":"id","generated":false,"id":"ProductCategory:6759d2c33ae248a83a69c433","typename":"ProductCategory"}],"name":"REPOLLO BLANCO 1/4 KG","slug":"REPOLLO BLANCO","description":null,"packagePrice":0,"images":{"type":"json","json":["images/NKBeIZN_h-repollo walmart (1) convertido.webp"]},"unit":null,"price":1500,"sale_price":null,"discount_in_percent":null,"product_quantity":998,"is_featured":true,"is_online":true,"meta_title":null,"meta_keyword":null,"meta_description":null,"__typename":"Product"},"Product:6754da13783e613c5e03734d":{"id":"6754da13783e613c5e03734d","type":{"type":"id","generated":false,"id":"ProductType:62b3e30e2669e09fc58ec6c2","typename":"ProductType"},"categories":[{"type":"id","generated":false,"id":"ProductCategory:6328efabcc33d353511f3c6e","typename":"ProductCategory"},{"type":"id","generated":false,"id":"ProductCategory:6759d3e13ae248a83a69c436","typename":"ProductCategory"},{"type":"id","generated":false,"id":"ProductCategory:6759d2c33ae248a83a69c433","typename":"ProductCategory"}],"name":"RABANITO X 1/4KG","slug":"RABANITO","description":null,"packagePrice":0,"images":{"type":"json","json":["images/E684K7oco-rabanito 500 gramos convertido.webp"]},"unit":null,"price":750,"sale_price":null,"discount_in_percent":null,"product_quantity":1000,"is_featured":true,"is_online":true,"meta_title":null,"meta_keyword":null,"meta_description":null,"__typename":"Product"},"Product:6754d8a3783e613c5e03734c":{"id":"6754d8a3783e613c5e03734c","type":{"type":"id","generated":false,"id":"ProductType:62b3e30e2669e09fc58ec6c2","typename":"ProductType"},"categories":[{"type":"id","generated":false,"id":"ProductCategory:6328efabcc33d353511f3c6e","typename":"ProductCategory"},{"type":"id","generated":false,"id":"ProductCategory:6759d3e13ae248a83a69c436","typename":"ProductCategory"},{"type":"id","generated":false,"id":"ProductCategory:6759d2c33ae248a83a69c433","typename":"ProductCategory"}],"name":"PUERRO X MASO","slug":"PUERRO","description":null,"packagePrice":0,"images":{"type":"json","json":["images/1x52dae2M-puerro convertido.webp"]},"unit":null,"price":1300,"sale_price":null,"discount_in_percent":null,"product_quantity":996,"is_featured":true,"is_online":true,"meta_title":null,"meta_keyword":null,"meta_description":null,"__typename":"Product"},"Product:6754d75f783e613c5e03734b":{"id":"6754d75f783e613c5e03734b","type":{"type":"id","generated":false,"id":"ProductType:62b3e30e2669e09fc58ec6c2","typename":"ProductType"},"categories":[{"type":"id","generated":false,"id":"ProductCategory:6328efabcc33d353511f3c6e","typename":"ProductCategory"},{"type":"id","generated":false,"id":"ProductCategory:6759d3e13ae248a83a69c436","typename":"ProductCategory"},{"type":"id","generated":false,"id":"ProductCategory:6759d2c33ae248a83a69c433","typename":"ProductCategory"}],"name":"REMOLACHA X ATADO","slug":"REMOLACHA","description":null,"packagePrice":0,"images":{"type":"json","json":["images/xlCGo9meg-remolacha medio kilo convertida.webp"]},"unit":null,"price":1000,"sale_price":null,"discount_in_percent":null,"product_quantity":998,"is_featured":true,"is_online":true,"meta_title":null,"meta_keyword":null,"meta_description":null,"__typename":"Product"},"$ROOT_QUERY.products({\"limit\":20,\"offset\":0,\"type\":\"home\"})":{"items":[{"type":"id","generated":false,"id":"Product:6756248c783e613c5e037353","typename":"Product"},{"type":"id","generated":false,"id":"Product:681f645d77cf669765d16c0b","typename":"Product"},{"type":"id","generated":false,"id":"Product:681f640dc69cea82c1975c72","typename":"Product"},{"type":"id","generated":false,"id":"Product:681e43537eae158239fedc7b","typename":"Product"},{"type":"id","generated":false,"id":"Product:67576352783e613c5e03735a","typename":"Product"},{"type":"id","generated":false,"id":"Product:6757624d783e613c5e037359","typename":"Product"},{"type":"id","generated":false,"id":"Product:67576112783e613c5e037358","typename":"Product"},{"type":"id","generated":false,"id":"Product:67576005783e613c5e037357","typename":"Product"},{"type":"id","generated":false,"id":"Product:67575ea9783e613c5e037356","typename":"Product"},{"type":"id","generated":false,"id":"Product:67575e0e783e613c5e037355","typename":"Product"},{"type":"id","generated":false,"id":"Product:67567000783e613c5e037354","typename":"Product"},{"type":"id","generated":false,"id":"Product:681f64d11fb04797f707e36e","typename":"Product"},{"type":"id","generated":false,"id":"Product:67562298783e613c5e037352","typename":"Product"},{"type":"id","generated":false,"id":"Product:67562121783e613c5e037351","typename":"Product"},{"type":"id","generated":false,"id":"Product:67561f11783e613c5e037350","typename":"Product"},{"type":"id","generated":false,"id":"Product:6754dc29783e613c5e03734f","typename":"Product"},{"type":"id","generated":false,"id":"Product:6754db14783e613c5e03734e","typename":"Product"},{"type":"id","generated":false,"id":"Product:6754da13783e613c5e03734d","typename":"Product"},{"type":"id","generated":false,"id":"Product:6754d8a3783e613c5e03734c","typename":"Product"},{"type":"id","generated":false,"id":"Product:6754d75f783e613c5e03734b","typename":"Product"}],"totalCount":140,"hasMore":true,"__typename":"ProductPaginationType"},"ROOT_QUERY":{"products({\"limit\":20,\"offset\":0,\"type\":\"home\"})":{"type":"id","generated":true,"id":"$ROOT_QUERY.products({\"limit\":20,\"offset\":0,\"type\":\"home\"})","typename":"ProductPaginationType"},"categories({\"limit\":0})":{"type":"id","generated":true,"id":"$ROOT_QUERY.categories({\"limit\":0})","typename":"CatetgoryPaginationType"}},"Category:681f7380d2954ba3374775f1":{"id":"681f7380d2954ba3374775f1","parent_id":"6759d2c33ae248a83a69c433","name":"Frutas","slug":"frutas","banner":"images/grocery-default-image.png","icon":"FruitsVegetable","children":[],"__typename":"Category"},"Category:6759d3e13ae248a83a69c436":{"id":"6759d3e13ae248a83a69c436","parent_id":"6759d2c33ae248a83a69c433","name":"Verduras","slug":"hortalizas-de-fruto-tallo-y-raiz","banner":"images/grocery-default-image.png","icon":"ArrowNext","children":[],"__typename":"Category"},"Category:6759d3873ae248a83a69c435":{"id":"6759d3873ae248a83a69c435","parent_id":"6759d2c33ae248a83a69c433","name":"Hojas","slug":"hortalizas-de-hoja","banner":"images/grocery-default-image.png","icon":"ArrowNext","children":[],"__typename":"Category"},"Category:6759d36b3ae248a83a69c434":{"id":"6759d36b3ae248a83a69c434","parent_id":null,"name":"Huevos y lacteos","slug":"huevos-y-lacteos","banner":"images/grocery-default-image.png","icon":"ArrowNext","children":[],"__typename":"Category"},"Category:6759d2c33ae248a83a69c433":{"id":"6759d2c33ae248a83a69c433","parent_id":null,"name":"Verduleria","slug":"frutas-y-verduras","banner":"images/grocery-default-image.png","icon":"GroceryIcon","children":[{"type":"id","generated":false,"id":"CategoryChildren:681f7380d2954ba3374775f1","typename":"CategoryChildren"},{"type":"id","generated":false,"id":"CategoryChildren:6759d3e13ae248a83a69c436","typename":"CategoryChildren"},{"type":"id","generated":false,"id":"CategoryChildren:6759d3873ae248a83a69c435","typename":"CategoryChildren"}],"__typename":"Category"},"CategoryChildren:681f7380d2954ba3374775f1":{"id":"681f7380d2954ba3374775f1","name":"Frutas","slug":"frutas","banner":"images/grocery-default-image.png","icon":"FruitsVegetable","__typename":"CategoryChildren"},"CategoryChildren:6759d3e13ae248a83a69c436":{"id":"6759d3e13ae248a83a69c436","name":"Verduras","slug":"hortalizas-de-fruto-tallo-y-raiz","banner":"images/grocery-default-image.png","icon":"ArrowNext","__typename":"CategoryChildren"},"CategoryChildren:6759d3873ae248a83a69c435":{"id":"6759d3873ae248a83a69c435","name":"Hojas","slug":"hortalizas-de-hoja","banner":"images/grocery-default-image.png","icon":"ArrowNext","__typename":"CategoryChildren"},"Category:6759cdbb3ae248a83a69c42f":{"id":"6759cdbb3ae248a83a69c42f","parent_id":"6748f340783e613c5e03733d","name":"Alimento para gatos","slug":"alimento-para-gatos","banner":"images/grocery-default-image.png","icon":"ArrowNext","children":[],"__typename":"Category"},"Category:6759cda93ae248a83a69c42e":{"id":"6759cda93ae248a83a69c42e","parent_id":"6748f340783e613c5e03733d","name":"Alimento para perros","slug":"alimento-para-perros","banner":"images/grocery-default-image.png","icon":"ArrowNext","children":[],"__typename":"Category"},"Category:6632bedab0c504f3ea5841f4":{"id":"6632bedab0c504f3ea5841f4","parent_id":null,"name":"Agua envasada","slug":"agua-envasada","banner":"images/grocery-default-image.png","icon":"Beverage","children":[],"__typename":"Category"},"$ROOT_QUERY.categories({\"limit\":0})":{"items":[{"type":"id","generated":false,"id":"Category:681f7380d2954ba3374775f1","typename":"Category"},{"type":"id","generated":false,"id":"Category:6759d3e13ae248a83a69c436","typename":"Category"},{"type":"id","generated":false,"id":"Category:6759d3873ae248a83a69c435","typename":"Category"},{"type":"id","generated":false,"id":"Category:6759d36b3ae248a83a69c434","typename":"Category"},{"type":"id","generated":false,"id":"Category:6759d2c33ae248a83a69c433","typename":"Category"},{"type":"id","generated":false,"id":"Category:6759cdbb3ae248a83a69c42f","typename":"Category"},{"type":"id","generated":false,"id":"Category:6759cda93ae248a83a69c42e","typename":"Category"},{"type":"id","generated":false,"id":"Category:6632bedab0c504f3ea5841f4","typename":"Category"}],"totalCount":8,"hasMore":true,"__typename":"CatetgoryPaginationType"}}},"__N_SSG":true}